purr와 broom 를 이용한 많은 모델
…
## -- Conflicts ------------------------------------------------ tidyverse_conflicts() --
## x dplyr::filter() masks stats::filter()
## x dplyr::lag()    masks stats::lag()

20.2 gapminder 데이터

많은 수의 간단한 모델의 위력을 보여주기 위해 ‘gapminder’ 데이터를 살펴볼 것 이다.

library(gapminder)
gapminder

## # A tibble: 1,704 x 6
##    country     continent  year lifeExp      pop gdpPercap
##    <fct>       <fct>     <int>   <dbl>    <int>     <dbl>
##  1 Afghanistan Asia       1952    28.8  8425333      779.
##  2 Afghanistan Asia       1957    30.3  9240934      821.
##  3 Afghanistan Asia       1962    32.0 10267083      853.
##  4 Afghanistan Asia       1967    34.0 11537966      836.
##  5 Afghanistan Asia       1972    36.1 13079460      740.
##  6 Afghanistan Asia       1977    38.4 14880372      786.
##  7 Afghanistan Asia       1982    39.9 12881816      978.
##  8 Afghanistan Asia       1987    40.8 13867957      852.
##  9 Afghanistan Asia       1992    41.7 16317921      649.
## 10 Afghanistan Asia       1997    41.8 22227415      635.
## # ... with 1,694 more rows
…
country_model <- function(df) {
  lm(lifeExp ~ year, data = df)
}

-또한 함수를 모든 데이터프레임에 적용하려고 한다. - 데이터프레임이 리스트 안에 있으므로 Purr::map()을 사용하여 각 요소에 대해 country_model 함수를 적용할 수 있다.

models <- map(by_country$data, country_model)

그러나 모델의 리스트를 자유로운 객체로 두기보다는 by_country 데이터프레임의 열로 저장하는것이 좋다.

by_country <- by_country %>%
  mutate(model = map(data, country_model))
by_country 

## # A tibble: 142 x 4
## # Groups:   country, continent [142]
##    country     continent data              model 
##    <fct>       <fct>     <list>            <list>
##  1 Afghanistan Asia      <tibble [12 x 4]> <lm>  
##  2 Albania     Europe    <tibble [12 x 4]> <lm>  
##  3 Algeria     Africa    <tibble [12 x 4]> <lm>  
##  4 Angola      Africa    <tibble [12 x 4]> <lm>  
##  5 Argentina   Americas  <tibble [12 x 4]> <lm>  
##  6 Australia   Oceania   <tibble [12 x 4]> <lm>  
##  7 Austria     Europe    <tibble [12 x 4]> <lm>  
##  8 Bahrain     Asia      <tibble [12 x 4]> <lm>  
##  9 Bangladesh  Asia      <tibble [12 x 4]> <lm>  
## 10 Belgium     Europe    <tibble [12 x 4]> <lm>  
## # ... with 132 more rows

이 방법에는 큰 장점이 있다. 모든 관련에 객체가 함꼐 저장되므로 필터링하거나 정렬할 때 수동으로 동기화 할 필요가 없다. 데이터프레임의 의미는 다음과 같이 처리된다,

by_country %>%
  filter(continent == "Europe")

## # A tibble: 30 x 4
## # Groups:   country, continent [30]
##    country                continent data              model 
##    <fct>                  <fct>     <list>            <list>
##  1 Albania                Europe    <tibble [12 x 4]> <lm>  
##  2 Austria                Europe    <tibble [12 x 4]> <lm>  
##  3 Belgium                Europe    <tibble [12 x 4]> <lm>  
##  4 Bosnia and Herzegovina Europe    <tibble [12 x 4]> <lm>  
##  5 Bulgaria               Europe    <tibble [12 x 4]> <lm>  
##  6 Croatia                Europe    <tibble [12 x 4]> <lm>  
##  7 Czech Republic         Europe    <tibble [12 x 4]> <lm>  
##  8 Denmark                Europe    <tibble [12 x 4]> <lm>  
##  9 Finland                Europe    <tibble [12 x 4]> <lm>  
## 10 France                 Europe    <tibble [12 x 4]> <lm>  
## # ... with 20 more rows

by_country %>%
  arrange(continent, country)

## # A tibble: 142 x 4
## # Groups:   country, continent [142]
##    country                  continent data              model 
##    <fct>                    <fct>     <list>            <list>
##  1 Algeria                  Africa    <tibble [12 x 4]> <lm>  
##  2 Angola                   Africa    <tibble [12 x 4]> <lm>  
##  3 Benin                    Africa    <tibble [12 x 4]> <lm>  
##  4 Botswana                 Africa    <tibble [12 x 4]> <lm>  
##  5 Burkina Faso             Africa    <tibble [12 x 4]> <lm>  
##  6 Burundi                  Africa    <tibble [12 x 4]> <lm>  
##  7 Cameroon                 Africa    <tibble [12 x 4]> <lm>  
##  8 Central African Republic Africa    <tibble [12 x 4]> <lm>  
##  9 Chad                     Africa    <tibble [12 x 4]> <lm>  
## 10 Comoros                  Africa    <tibble [12 x 4]> <lm>  
## # ... with 132 more rows

-데이터프레임의 리스트와 모델의 리스트가 분리된 객체인 경우, 하나의 백터를 재 정렬하거나 하위 집합으로 만들 때마다 동기화하기 위해 다른 모든것을 재정렬 하거나 하위 집합으로 만들어야 한다.

20.2.3 중첩 해체하기 (unnesting)

이 전에는 하나의 데이터셋의 단일 모델에 대한 잔차를 계산하였지만,

이제는 142개의 데이터프레임과 142개의 모델을 보유하고 있다.

by_country <- by_country %>%
  mutate(
    resids = map2(data, model, add_residuals))
by_country 

## # A tibble: 142 x 5
## # Groups:   country, continent [142]
##    country     continent data              model  resids           
##    <fct>       <fct>     <list>            <list> <list>           
##  1 Afghanistan Asia      <tibble [12 x 4]> <lm>   <tibble [12 x 5]>
##  2 Albania     Europe    <tibble [12 x 4]> <lm>   <tibble [12 x 5]>
##  3 Algeria     Africa    <tibble [12 x 4]> <lm>   <tibble [12 x 5]>
##  4 Angola      Africa    <tibble [12 x 4]> <lm>   <tibble [12 x 5]>
##  5 Argentina   Americas  <tibble [12 x 4]> <lm>   <tibble [12 x 5]>
##  6 Australia   Oceania   <tibble [12 x 4]> <lm>   <tibble [12 x 5]>
##  7 Austria     Europe    <tibble [12 x 4]> <lm>   <tibble [12 x 5]>
##  8 Bahrain     Asia      <tibble [12 x 4]> <lm>   <tibble [12 x 5]>
##  9 Bangladesh  Asia      <tibble [12 x 4]> <lm>   <tibble [12 x 5]>
## 10 Belgium     Europe    <tibble [12 x 4]> <lm>   <tibble [12 x 5]>
## # ... with 132 more rows

그런데 데이터프레임 리스트를 어떻게 하면 플롯으로 나타낼 수 있을까?

이 질문에 답하기 위해 고민하는대신 데이터프레임 리스트를 일반 데이터프레임 으로 되돌려보자.

resids <- unnest(by_country , resids)
resids

## # A tibble: 1,704 x 9
## # Groups:   country, continent [142]
##    country   continent data        model   year lifeExp    pop gdpPercap   resid
##    <fct>     <fct>     <list>      <list> <int>   <dbl>  <int>     <dbl>   <dbl>
##  1 Afghanis~ Asia      <tibble [1~ <lm>    1952    28.8 8.43e6      779. -1.11  
##  2 Afghanis~ Asia      <tibble [1~ <lm>    1957    30.3 9.24e6      821. -0.952 
##  3 Afghanis~ Asia      <tibble [1~ <lm>    1962    32.0 1.03e7      853. -0.664 
##  4 Afghanis~ Asia      <tibble [1~ <lm>    1967    34.0 1.15e7      836. -0.0172
##  5 Afghanis~ Asia      <tibble [1~ <lm>    1972    36.1 1.31e7      740.  0.674 
##  6 Afghanis~ Asia      <tibble [1~ <lm>    1977    38.4 1.49e7      786.  1.65  
##  7 Afghanis~ Asia      <tibble [1~ <lm>    1982    39.9 1.29e7      978.  1.69  
##  8 Afghanis~ Asia      <tibble [1~ <lm>    1987    40.8 1.39e7      852.  1.28  
##  9 Afghanis~ Asia      <tibble [1~ <lm>    1992    41.7 1.63e7      649.  0.754 
## 10 Afghanis~ Asia      <tibble [1~ <lm>    1997    41.8 2.22e7      635. -0.534 
## # ... with 1,694 more rows
…
## # A tibble: 1 x 12
##   r.squared adj.r.squared sigma statistic p.value    df logLik   AIC   BIC
##       <dbl>         <dbl> <dbl>     <dbl>   <dbl> <dbl>  <dbl> <dbl> <dbl>
## 1     0.954         0.949 0.804      205. 5.41e-8     1  -13.3  32.6  34.1
## # ... with 3 more variables: deviance <dbl>, df.residual <int>, nobs <int>

-mutate()와 unnest()를 사용하여 국가별로 하나의 행이 존재하는 데이터프레임을 만들수있다.

library(dplyr)

by_country %>%
  mutate(glance = map(model, broom::glance)) %>%
  unnest(glance)

## # A tibble: 142 x 17
## # Groups:   country, continent [142]
##    country continent data  model resids r.squared adj.r.squared sigma statistic
##    <fct>   <fct>     <lis> <lis> <list>     <dbl>         <dbl> <dbl>     <dbl>
##  1 Afghan~ Asia      <tib~ <lm>  <tibb~     0.948         0.942 1.22      181. 
##  2 Albania Europe    <tib~ <lm>  <tibb~     0.911         0.902 1.98      102. 
##  3 Algeria Africa    <tib~ <lm>  <tibb~     0.985         0.984 1.32      662. 
##  4 Angola  Africa    <tib~ <lm>  <tibb~     0.888         0.877 1.41       79.1
##  5 Argent~ Americas  <tib~ <lm>  <tibb~     0.996         0.995 0.292    2246. 
##  6 Austra~ Oceania   <tib~ <lm>  <tibb~     0.980         0.978 0.621     481. 
##  7 Austria Europe    <tib~ <lm>  <tibb~     0.992         0.991 0.407    1261. 
##  8 Bahrain Asia      <tib~ <lm>  <tibb~     0.967         0.963 1.64      291. 
##  9 Bangla~ Asia      <tib~ <lm>  <tibb~     0.989         0.988 0.977     930. 
## 10 Belgium Europe    <tib~ <lm>  <tibb~     0.995         0.994 0.293    1822. 
## # ... with 132 more rows, and 8 more variables: p.value <dbl>, df <dbl>,
## #   logLik <dbl>, AIC <dbl>, BIC <dbl>, deviance <dbl>, df.residual <int>,
## #   nobs <int>

-그렇지만 여전히 모든 리스트-열을 포함하고 있으므로 이는 우리가 원하는 결과물이 아니다.

glance <- by_country %>%
  mutate(glance = map(model, broom :: glance)) %>%
  unnest(glance, drop = TRUE)

## Warning: unnest() has a new interface. See ?unnest for details.
## Try `df %>% unnest(c(glance, drop))`, with `mutate()` if needed

glance

## # A tibble: 142 x 18
## # Groups:   country, continent [142]
##    country continent data  model resids r.squared adj.r.squared sigma statistic
##    <fct>   <fct>     <lis> <lis> <list>     <dbl>         <dbl> <dbl>     <dbl>
##  1 Afghan~ Asia      <tib~ <lm>  <tibb~     0.948         0.942 1.22      181. 
##  2 Albania Europe    <tib~ <lm>  <tibb~     0.911         0.902 1.98      102. 
##  3 Algeria Africa    <tib~ <lm>  <tibb~     0.985         0.984 1.32      662. 
##  4 Angola  Africa    <tib~ <lm>  <tibb~     0.888         0.877 1.41       79.1
##  5 Argent~ Americas  <tib~ <lm>  <tibb~     0.996         0.995 0.292    2246. 
##  6 Austra~ Oceania   <tib~ <lm>  <tibb~     0.980         0.978 0.621     481. 
##  7 Austria Europe    <tib~ <lm>  <tibb~     0.992         0.991 0.407    1261. 
##  8 Bahrain Asia      <tib~ <lm>  <tibb~     0.967         0.963 1.64      291. 
##  9 Bangla~ Asia      <tib~ <lm>  <tibb~     0.989         0.988 0.977     930. 
## 10 Belgium Europe    <tib~ <lm>  <tibb~     0.995         0.994 0.293    1822. 
## # ... with 132 more rows, and 9 more variables: p.value <dbl>, df <dbl>,
## #   logLik <dbl>, AIC <dbl>, BIC <dbl>, deviance <dbl>, df.residual <int>,
## #   nobs <int>, drop <lgl>

유용한 정보가 많이 포함되었지만 인쇄되지 않은 변수에 주목해보자.

이 데이터프레임을 사용하면 잘 맞지 않는 모델을 찾을 수 있다.

glance %>%
  arrange(r.squared)

## # A tibble: 142 x 18
## # Groups:   country, continent [142]
##    country continent data  model resids r.squared adj.r.squared sigma statistic
##    <fct>   <fct>     <lis> <lis> <list>     <dbl>         <dbl> <dbl>     <dbl>
##  1 Rwanda  Africa    <tib~ <lm>  <tibb~    0.0172      -0.0811   6.56     0.175
##  2 Botswa~ Africa    <tib~ <lm>  <tibb~    0.0340      -0.0626   6.11     0.352
##  3 Zimbab~ Africa    <tib~ <lm>  <tibb~    0.0562      -0.0381   7.21     0.596
##  4 Zambia  Africa    <tib~ <lm>  <tibb~    0.0598      -0.0342   4.53     0.636
##  5 Swazil~ Africa    <tib~ <lm>  <tibb~    0.0682      -0.0250   6.64     0.732
##  6 Lesotho Africa    <tib~ <lm>  <tibb~    0.0849      -0.00666  5.93     0.927
##  7 Cote d~ Africa    <tib~ <lm>  <tibb~    0.283        0.212    3.93     3.95 
##  8 South ~ Africa    <tib~ <lm>  <tibb~    0.312        0.244    4.74     4.54 
##  9 Uganda  Africa    <tib~ <lm>  <tibb~    0.342        0.276    3.19     5.20 
## 10 Congo,~ Africa    <tib~ <lm>  <tibb~    0.348        0.283    2.43     5.34 
## # ... with 132 more rows, and 9 more variables: p.value <dbl>, df <dbl>,
## #   logLik <dbl>, AIC <dbl>, BIC <dbl>, deviance <dbl>, df.residual <int>,
## #   nobs <int>, drop <lgl>
…
여러 결과를 반환하는 summarize()와 요약 함수를 사용한다.

-또는 tibble::enframe()를 사용하여 명명된 리스트에서 생성할 수도 있다.

20.4.1 중첩을 사용하여 생성하기

-nest()함수는 중첩된 데이터프레임(즉, 데이터프레임의 리스트-열로 이루어진 데이터프레임)을 생성한다.

nest()를 사용하는 두 가지 방법이 있다. 지금까지는 그룹화된 데이터프레임에 사용하는 방법을 살펴보았다.

gapminder %>%
  group_by(country, continent) %>%
  nest()

## # A tibble: 142 x 3
## # Groups:   country, continent [142]
##    country     continent data             
##    <fct>       <fct>     <list>           
##  1 Afghanistan Asia      <tibble [12 x 4]>
##  2 Albania     Europe    <tibble [12 x 4]>
##  3 Algeria     Africa    <tibble [12 x 4]>
##  4 Angola      Africa    <tibble [12 x 4]>
##  5 Argentina   Americas  <tibble [12 x 4]>
##  6 Australia   Oceania   <tibble [12 x 4]>
##  7 Austria     Europe    <tibble [12 x 4]>
##  8 Bahrain     Asia      <tibble [12 x 4]>
##  9 Bangladesh  Asia      <tibble [12 x 4]>
## 10 Belgium     Europe    <tibble [12 x 4]>
## # ... with 132 more rows

그룹화되지 않은 데이터프레임에서도 중점하고자 하는 열을 지정하면 사용할 수 있다.

gapminder %>%
  nest(year: gdpPercap)

## Warning: All elements of `...` must be named.
## Did you want `data = c(year, lifeExp, pop, gdpPercap)`?

## # A tibble: 142 x 3
##    country     continent data             
##    <fct>       <fct>     <list>           
##  1 Afghanistan Asia      <tibble [12 x 4]>
##  2 Albania     Europe    <tibble [12 x 4]>
##  3 Algeria     Africa    <tibble [12 x 4]>
##  4 Angola      Africa    <tibble [12 x 4]>
##  5 Argentina   Americas  <tibble [12 x 4]>
##  6 Australia   Oceania   <tibble [12 x 4]>
##  7 Austria     Europe    <tibble [12 x 4]>
##  8 Bahrain     Asia      <tibble [12 x 4]>
##  9 Bangladesh  Asia      <tibble [12 x 4]>
## 10 Belgium     Europe    <tibble [12 x 4]>
## # ... with 132 more rows
…
