…
```{r}
gss_cat %>%
  mutate(partyid = fct_recode(partyid,
    "Republican, strong" = "strong republican",
    "Republican, weak" = "Not str republican",
    "Independent, near rep" = "Ind,near rep",
    "Independent, near dem" = "Ind,near dem",
    "Democrat, weak" = "Not str democrat",
    "Democrat, strong" = "strong democrat"
    )) %>%
    count(partyid)
#> #> # A tibble: 8 x 2
#>         partyid  n
#>        <fctr>   <int>
#> 1      other     548     
#> 2 Republican, strong 2314
#> 3 Republican, weak 3032
#> 4 Independent, near rep 1791
#> 5 Independent 4119
#> 6 Independent, near dem 2499
#> # ... with 2 more rows
```
…
